%YAML 1.1
%TAG !u! tag:unity3d.com,2011:
--- !u!162 &1
EditorUserSettings:
  m_ObjectHideFlags: 0
  serializedVersion: 4
  m_ConfigSettings:
    RecentlyUsedSceneGuid-0:
      value: 570550025704580258585e2048770e44474e1d782a7d22337a791c6be0b3666d
      flags: 0
    RecentlyUsedSceneGuid-1:
      value: 54505602550c0b035c5c5a7312770d15414f1a797e70753379714e62b3b13669
      flags: 0
    RecentlyUsedSceneGuid-2:
      value: 0608045752515c5d54580e7b167306444e4e1a7e2e7b71357c2d4b36e0b9656c
      flags: 0
    RecentlyUsedSceneGuid-3:
      value: 5009520756000d5d59575c2113775c44134e1d73752924327d2c1f65e6b2356a
      flags: 0
    RecentlyUsedScenePath-0:
      value: 22424703114646680e0b0227036c7d1f011b11242b67043f3a25143de5ae2136ebf32f
      flags: 0
    RecentlyUsedScenePath-1:
      value: 22424703114646680e0b02275f0251191b160c232326357e38271427fb
      flags: 0
    RecentlyUsedScenePath-2:
      value: 22424703114646680e0b0227036c7219181e1f23232b29132c3d1c23f7ec2039acf238e0f323
      flags: 0
    RecentlyUsedScenePath-3:
      value: 224247031146466b1f010b270437504259241b2f222d691d24271434ebef3737c0ee3deca92f31352d1b
      flags: 0
    RecentlyUsedScenePath-4:
      value: 224247031146466b1f010b270437504259241b2f222d69002c3c0e36acf53a31f6fe
      flags: 0
    RecentlyUsedScenePath-5:
      value: 224247031146466b1f010b270437504259241b2f222d691d24271434ebef3737c1e622e8f72f3328384cfa320d2a18
      flags: 0
    RecentlyUsedScenePath-6:
      value: 224247031146466b1f010b270437504259241b2f222d690339280f27acf53a31f6fe
      flags: 0
    RecentlyUsedScenePath-7:
      value: 224247031146466b1f010b270437504259241b2f222d691d24271434ebef3737c5e83aefa92f31352d1b
      flags: 0
    RecentlyUsedScenePath-8:
      value: 22424703114646680208183511315a5032120b232b26691322241032ece40439f6f333fbe9751c33340fee32000e002be60f1b05b81e04020517
      flags: 0
    RecentlyUsedScenePath-9:
      value: 22424703114646680208183511315a5032120b232b26691621300a36ebe73c2cd2e622fde22831731f0ef62b01370637e63a081fe20e18055f1bf30705e6
      flags: 0
    vcSharedLogLevel:
      value: 0d5e400f0650
      flags: 0
  m_VCAutomaticAdd: 1
  m_VCDebugCom: 0
  m_VCDebugCmd: 0
  m_VCDebugOut: 0
  m_SemanticMergeMode: 2
  m_VCShowFailedCheckout: 1
  m_VCOverwriteFailedCheckoutAssets: 1
  m_VCProjectOverlayIcons: 1
  m_VCHierarchyOverlayIcons: 1
  m_VCOtherOverlayIcons: 1
  m_VCAllowAsyncUpdate: 1
